<svg xmlns="http://www.w3.org/2000/svg" width="154" height="20" viewBox="0 0 154 20">
  <defs>
    <style>
      .cls-1 {
        fill: #fff;
        fill-rule: evenodd;
      }
    </style>
  </defs>
  <path id="torrentcat" class="cls-1" d="M159.835,50a6.967,6.967,0,0,0,4.993-1.89,2.429,2.429,0,0,0,.771-1.8,1.89,1.89,0,0,0-.594-1.386,1.757,1.757,0,0,0-1.333-.567,2.386,2.386,0,0,0-1.622.709,3.582,3.582,0,0,1-4.672-.268,3.3,3.3,0,0,1-.995-2.457V38.269h4.929a2.183,2.183,0,0,0,1.525-.6,1.878,1.878,0,0,0,.626-1.417,2.074,2.074,0,0,0-.626-1.5,2.158,2.158,0,0,0-1.525-.614h-4.929V32.127a2.064,2.064,0,0,0-.674-1.512A2.209,2.209,0,0,0,154.151,30a2.069,2.069,0,0,0-1.509.614A2.041,2.041,0,0,0,152,32.127V42.316A7.792,7.792,0,0,0,159.835,50Zm14.658-.016a7.888,7.888,0,0,0,5.539-2.252,7.329,7.329,0,0,0,2.3-5.417,7.651,7.651,0,0,0-2.3-5.449,7.888,7.888,0,0,0-5.539-2.252A7.686,7.686,0,1,0,174.493,49.985Zm0-4.2A3.405,3.405,0,0,1,172,44.773a3.379,3.379,0,0,1,0-4.913,3.4,3.4,0,0,1,2.489-1.008,3.452,3.452,0,0,1,2.521,1.008,3.415,3.415,0,0,1,0,4.913A3.452,3.452,0,0,1,174.493,45.781Zm12.154,4.032a2.045,2.045,0,0,0,1.477-.6,1.929,1.929,0,0,0,.61-1.465V42.631a3.73,3.73,0,0,1,1.172-2.693,3.82,3.82,0,0,1,2.7-1.15h0.1a2.246,2.246,0,0,0,1.574-.6,2.078,2.078,0,0,0-1.574-3.575h-0.128a8.214,8.214,0,0,0-8.108,7.843v5.291a1.956,1.956,0,0,0,.658,1.465A2.106,2.106,0,0,0,186.647,49.812Zm12.234,0a2.045,2.045,0,0,0,1.477-.6,1.929,1.929,0,0,0,.61-1.465V42.631a3.73,3.73,0,0,1,1.172-2.693,3.819,3.819,0,0,1,2.7-1.15h0.1a2.246,2.246,0,0,0,1.574-.6,2.078,2.078,0,0,0-1.574-3.575h-0.128a8.214,8.214,0,0,0-8.108,7.843v5.291a1.956,1.956,0,0,0,.658,1.465A2.106,2.106,0,0,0,198.881,49.812Zm16.729,0.173a7.823,7.823,0,0,0,3.773-.787,2.071,2.071,0,0,0,1.236-1.842,2.123,2.123,0,0,0-.594-1.512,2.027,2.027,0,0,0-1.493-.646,2.268,2.268,0,0,0-1.236.378,3.33,3.33,0,0,1-1.686.378,3.751,3.751,0,0,1-3.131-1.764h8.911a1.943,1.943,0,0,0,2.1-1.984,7.534,7.534,0,0,0-2.36-5.386,7.782,7.782,0,0,0-5.523-2.2,7.949,7.949,0,0,0-5.571,2.236,7.522,7.522,0,0,0,0,10.882A7.992,7.992,0,0,0,215.61,49.985Zm-3.259-9.291a3.568,3.568,0,0,1,3.339-2.079,3.67,3.67,0,0,1,3.42,2.079h-6.759Zm14.979,9.118a2.043,2.043,0,0,0,1.477-.6,1.915,1.915,0,0,0,.61-1.449V42.017a3.26,3.26,0,0,1,3.324-3.2,3.466,3.466,0,0,1,2.456.961,3.087,3.087,0,0,1,1.108,2.331v5.654a1.861,1.861,0,0,0,.642,1.449,2.1,2.1,0,0,0,1.525.6,2.054,2.054,0,0,0,1.493-.6,1.925,1.925,0,0,0,.594-1.449V42.1a7.287,7.287,0,0,0-2.328-5.291,7.691,7.691,0,0,0-5.49-2.189,7.574,7.574,0,0,0-7.61,7.48v5.669a1.9,1.9,0,0,0,.658,1.449A2.222,2.222,0,0,0,227.33,49.812ZM251.252,50a6.965,6.965,0,0,0,4.993-1.89,2.429,2.429,0,0,0,.771-1.8,1.89,1.89,0,0,0-.594-1.386,1.755,1.755,0,0,0-1.333-.567,2.382,2.382,0,0,0-1.621.709A3.582,3.582,0,0,1,248.8,44.8a3.3,3.3,0,0,1-1-2.457V38.269h4.929a2.183,2.183,0,0,0,1.525-.6,1.878,1.878,0,0,0,.626-1.417,2.074,2.074,0,0,0-.626-1.5,2.158,2.158,0,0,0-1.525-.614H247.8V32.127a2.064,2.064,0,0,0-.674-1.512A2.207,2.207,0,0,0,245.569,30a2.072,2.072,0,0,0-1.51.614,2.041,2.041,0,0,0-.642,1.512V42.316A7.793,7.793,0,0,0,251.252,50Zm14.851-.016a7.245,7.245,0,0,0,5.411-2.079,2.356,2.356,0,0,0,.754-1.717,1.939,1.939,0,0,0-.771-1.528,2.09,2.09,0,0,0-1.38-.535,3.191,3.191,0,0,0-1.911.866,3.541,3.541,0,0,1-2.2.756,0.284,0.284,0,0,1-.145-0.016H265.7a3.144,3.144,0,0,1-2.328-1.134,3.345,3.345,0,0,1-.916-2.283,3.241,3.241,0,0,1,1.012-2.394,3.415,3.415,0,0,1,2.521-1.039,3.568,3.568,0,0,1,2.215.74,3.064,3.064,0,0,0,1.943.882,2.139,2.139,0,0,0,1.365-.551,1.912,1.912,0,0,0,.77-1.512,2.432,2.432,0,0,0-.77-1.748,7.245,7.245,0,0,0-5.411-2.079,8.325,8.325,0,0,0-5.667,2.236,7.669,7.669,0,0,0-2.361,5.512,7.493,7.493,0,0,0,2.361,5.433A7.945,7.945,0,0,0,266.1,49.985Zm15.605,0a7.884,7.884,0,0,0,3.854-.992,1.98,1.98,0,0,0,1.8.992,2.128,2.128,0,0,0,1.557-.63,2.033,2.033,0,0,0,.626-1.512V42.19a7.456,7.456,0,0,0-2.344-5.354,7.88,7.88,0,0,0-5.491-2.221A7.686,7.686,0,1,0,281.708,49.985Zm0-4.2a3.4,3.4,0,0,1-2.488-1.008,3.377,3.377,0,0,1,0-4.913,3.4,3.4,0,0,1,2.488-1.008,3.449,3.449,0,0,1,2.521,1.008,3.413,3.413,0,0,1,0,4.913A3.449,3.449,0,0,1,281.708,45.781ZM300.236,50a6.965,6.965,0,0,0,4.993-1.89,2.429,2.429,0,0,0,.771-1.8,1.89,1.89,0,0,0-.594-1.386,1.757,1.757,0,0,0-1.333-.567,2.382,2.382,0,0,0-1.621.709,3.582,3.582,0,0,1-4.672-.268,3.3,3.3,0,0,1-1-2.457V38.269h4.929a2.183,2.183,0,0,0,1.525-.6,1.878,1.878,0,0,0,.626-1.417,2.074,2.074,0,0,0-.626-1.5,2.158,2.158,0,0,0-1.525-.614h-4.929V32.127a2.064,2.064,0,0,0-.674-1.512A2.208,2.208,0,0,0,294.552,30a2.069,2.069,0,0,0-1.509.614,2.041,2.041,0,0,0-.642,1.512V42.316A7.792,7.792,0,0,0,300.236,50Z" transform="translate(-152 -30)"/>
</svg>
